package org.talend.survivorship.product1 

rule "ISTAT"
    no-loop true
    dialect "mvel"
    ruleflow-group "ISTATGroup"
when
    $input : RecordIn( source_system.equals("Ferguson") )  
then
    dataset.survive( $input.TALEND_INTERNAL_ID, "ISTAT", drools.getRule().getName());

end
rule "ISTAT1"
    no-loop true
    dialect "mvel"
    ruleflow-group "ISTATGroup"
when
         $input : RecordIn( source_system.equals("Build") )  
    (not (exists (RecordIn( source_system.equals("Ferguson") ))))  
then
    dataset.survive( $input.TALEND_INTERNAL_ID, "ISTAT", drools.getRule().getName());

end
rule "ISTAT2"
    no-loop true
    dialect "mvel"
    ruleflow-group "ISTATGroup"
when
    $input : RecordIn( source_system matches "Canada.*"  )  
then
    dataset.survive( $input.TALEND_INTERNAL_ID, "ISTAT", drools.getRule().getName());

end


