package org.talend.survivorship.product1 

rule "Supplier_Name_Modified"
    no-loop true
    dialect "mvel"
    ruleflow-group "Supplier_Name_ModifiedGroup"
when
    $input : RecordIn( source_system.equals("Ferguson") )  
then
    dataset.survive( $input.TALEND_INTERNAL_ID, "Supplier_Name_Modified", drools.getRule().getName());

end
rule "Supplier_Name_Modified1"
    no-loop true
    dialect "mvel"
    ruleflow-group "Supplier_Name_ModifiedGroup"
when
     $input : RecordIn( source_system.equals("Build") )  
    (not (exists (RecordIn( source_system.equals("Ferguson") ))))   
then
    dataset.survive( $input.TALEND_INTERNAL_ID, "Supplier_Name_Modified", drools.getRule().getName());

end
rule "Supplier_Name_Modified2"
    no-loop true
    dialect "mvel"
    ruleflow-group "Supplier_Name_ModifiedGroup"
when
        $input : RecordIn( source_system matches "Canada.*"  )  
then
    dataset.survive( $input.TALEND_INTERNAL_ID, "Supplier_Name_Modified", drools.getRule().getName());

end



