package org.talend.survivorship.sample1 

rule "Rule_Supplier_Name_Modified"
    no-loop true
    dialect "mvel"
    ruleflow-group "Rule_Supplier_Name_ModifiedGroup"
when
    $input : RecordIn( source_system matches "Canada.*"  )  
then
    dataset.survive( $input.TALEND_INTERNAL_ID, "Supplier_Name_Modified", drools.getRule().getName());

end


