package org.talend.survivorship.sample1 

rule "Rule_MP_LINEBUY_ID"
    no-loop true
    dialect "mvel"
    ruleflow-group "Rule_MP_LINEBUY_IDGroup"
when
    $input : RecordIn( source_system matches "Canada.*"  )  
then
    dataset.survive( $input.TALEND_INTERNAL_ID, "MP_LINEBUY_ID", drools.getRule().getName());

end


